{
  "id" : "0bb199b4-99d6-434a-bc9e-a100e94d2ae3",
  "creation_time" : 1457435658934,
  "state" : "ACTIVE",
  "sla_id" : "${SLA_ID}",
  "sla_state" : null,
  "supply_chain_id" : "${SUPPLY_CHAIN_ID}",
  "impl_activity_id" : "49c2a9d6-025b-4ae7-8749-bf6ce5b22357",
  "plan_count" : 2,
  "active_plan_id" : "bf8893d8-ecdc-43d9-822f-a4535139d79b",
  "annotations" : null
}
